…
# summarise all variables with default estimates
result <- summariseResult(x)
#> ℹ The following estimates will be calculated:
#> • age: min, q25, median, q75, max
#> • cohort_end_date: min, q25, median, q75, max
#> • cohort_start_date: min, q25, median, q75, max
#> • future_observation: min, q25, median, q75, max
#> • prior_observation: min, q25, median, q75, max
#> • sex: count, percentage
#> ! Table is collected to memory as not all requested estimates are supported on
#>   the database side
#> → Start summary of data, at 2026-02-26 08:43:18.018781
#> ✔ Summary finished, at 2026-02-26 08:43:18.100267
result
#> # A tibble: 31 × 13
#>    result_id cdm_name group_name group_level strata_name strata_level
#>        <int> <chr>    <chr>      <chr>       <chr>       <chr>       
#>  1         1 PP_MOCK  overall    overall     overall     overall     
#>  2         1 PP_MOCK  overall    overall     overall     overall     
#>  3         1 PP_MOCK  overall    overall     overall     overall     
#>  4         1 PP_MOCK  overall    overall     overall     overall     
#>  5         1 PP_MOCK  overall    overall     overall     overall     
#>  6         1 PP_MOCK  overall    overall     overall     overall     
#>  7         1 PP_MOCK  overall    overall     overall     overall     
#>  8         1 PP_MOCK  overall    overall     overall     overall     
#>  9         1 PP_MOCK  overall    overall     overall     overall     
#> 10         1 PP_MOCK  overall    overall     overall     overall     
#> # ℹ 21 more rows
#> # ℹ 7 more variables: variable_name <chr>, variable_level <chr>,
#> #   estimate_name <chr>, estimate_type <chr>, estimate_value <chr>,
#> #   additional_name <chr>, additional_level <chr>
…
# specify variables and estimates
result <- summariseResult(
  table = x,
  variables = c("cohort_start_date", "age"),
  estimates = c("mean", "median", "density")
)
#> ℹ The following estimates will be calculated:
#> • cohort_start_date: mean, median, density
#> • age: mean, median, density
#> ! Table is collected to memory as not all requested estimates are supported on
#>   the database side
#> → Start summary of data, at 2026-02-26 08:43:19.026757
#> ✔ Summary finished, at 2026-02-26 08:43:19.119749
result
#> # A tibble: 2,054 × 13
#>    result_id cdm_name group_name group_level strata_name strata_level
#>        <int> <chr>    <chr>      <chr>       <chr>       <chr>       
#>  1         1 PP_MOCK  overall    overall     overall     overall     
#>  2         1 PP_MOCK  overall    overall     overall     overall     
#>  3         1 PP_MOCK  overall    overall     overall     overall     
#>  4         1 PP_MOCK  overall    overall     overall     overall     
#>  5         1 PP_MOCK  overall    overall     overall     overall     
#>  6         1 PP_MOCK  overall    overall     overall     overall     
#>  7         1 PP_MOCK  overall    overall     overall     overall     
#>  8         1 PP_MOCK  overall    overall     overall     overall     
#>  9         1 PP_MOCK  overall    overall     overall     overall     
#> 10         1 PP_MOCK  overall    overall     overall     overall     
#> # ℹ 2,044 more rows
#> # ℹ 7 more variables: variable_name <chr>, variable_level <chr>,
#> #   estimate_name <chr>, estimate_type <chr>, estimate_value <chr>,
#> #   additional_name <chr>, additional_level <chr>
…
